%YAML 1.1
%TAG !u! tag:unity3d.com,2011:
--- !u!74 &7400000
AnimationClip:
  m_ObjectHideFlags: 0
  m_PrefabParentObject: {fileID: 0}
  m_PrefabInternal: {fileID: 0}
  m_Name: Loading-Anim
  serializedVersion: 6
  m_Legacy: 0
  m_Compressed: 0
  m_UseHighQualityCurve: 1
  m_RotationCurves: []
  m_CompressedRotationCurves: []
  m_EulerCurves: []
  m_PositionCurves: []
  m_ScaleCurves: []
  m_FloatCurves: []
  m_PPtrCurves:
  - curve:
    - time: 0
      value: {fileID: 21300000, guid: df7f447d7c3baf84286e6652e6c2a289, type: 3}
    - time: 0.16666667
      value: {fileID: 21300000, guid: 9af04bd4dfb6a2c4a866a1fc37f16a25, type: 3}
    - time: 0.33333334
      value: {fileID: 21300000, guid: 26e75e1ac01fc2e4a8fdd555089a3964, type: 3}
    - time: 0.5
      value: {fileID: 21300000, guid: c9e489e43a45f064aa115115274e0140, type: 3}
    - time: 0.6666667
      value: {fileID: 21300000, guid: c774abd6fec28164190a81e355f70055, type: 3}
    - time: 0.8333333
      value: {fileID: 21300000, guid: 176447aa32cd9af4ea858b5234ad3ac8, type: 3}
    - time: 1
      value: {fileID: 21300000, guid: a771e948ff0fdd549871434b343d4e1d, type: 3}
    - time: 1.1666666
      value: {fileID: 21300000, guid: 398bfa3c47a939d42a040bb5eec58347, type: 3}
    - time: 1.3333334
      value: {fileID: 21300000, guid: a1c9cc2600b02e541b1a73554d0f6df3, type: 3}
    - time: 1.5
      value: {fileID: 21300000, guid: fd49766c2484247488bf85a2d9fa59d7, type: 3}
    - time: 1.6666666
      value: {fileID: 21300000, guid: 205122068812a3b4a8cf4367977e03f1, type: 3}
    - time: 3
      value: {fileID: 21300000, guid: a97618f0743537546971030869b809ff, type: 3}
    - time: 3.1666667
      value: {fileID: 21300000, guid: fd915a6f2eb97ac47bc7a69bda113f9b, type: 3}
    - time: 3.3333333
      value: {fileID: 21300000, guid: 8a098266194de3a43ae520332e748dfb, type: 3}
    - time: 3.5
      value: {fileID: 21300000, guid: c453edae0e1c56d43aa0cf3c80494f51, type: 3}
    - time: 3.6666667
      value: {fileID: 21300000, guid: 1a67466a021d052419bbccb66ac6f726, type: 3}
    - time: 3.8333333
      value: {fileID: 21300000, guid: 0522b4c07dc0e0841aea817079dbbde5, type: 3}
    - time: 4
      value: {fileID: 21300000, guid: 24a379f77b4e6054c85e910b6f08f07d, type: 3}
    - time: 4.1666665
      value: {fileID: 21300000, guid: 13a2322c38fc7e3428c590d61e808317, type: 3}
    - time: 4.3333335
      value: {fileID: 21300000, guid: 0fe506850ec3ef94d9d3d76d9045a238, type: 3}
    - time: 4.5
      value: {fileID: 21300000, guid: e704a9b5b57fc2f4c8ece9eea5915742, type: 3}
    - time: 4.5833335
      value: {fileID: 21300000, guid: df7f447d7c3baf84286e6652e6c2a289, type: 3}
    - time: 6
      value: {fileID: 21300000, guid: df7f447d7c3baf84286e6652e6c2a289, type: 3}
    attribute: m_Sprite
    path: 
    classID: 114
    script: {fileID: -765806418, guid: f5f67c52d1564df4a8936ccd202a3bd8, type: 3}
  m_SampleRate: 60
  m_WrapMode: 0
  m_Bounds:
    m_Center: {x: 0, y: 0, z: 0}
    m_Extent: {x: 0, y: 0, z: 0}
  m_ClipBindingConstant:
    genericBindings:
    - serializedVersion: 2
      path: 0
      attribute: 2015549526
      script: {fileID: -765806418, guid: f5f67c52d1564df4a8936ccd202a3bd8, type: 3}
      typeID: 114
      customType: 0
      isPPtrCurve: 1
    pptrCurveMapping:
    - {fileID: 21300000, guid: df7f447d7c3baf84286e6652e6c2a289, type: 3}
    - {fileID: 21300000, guid: 9af04bd4dfb6a2c4a866a1fc37f16a25, type: 3}
    - {fileID: 21300000, guid: 26e75e1ac01fc2e4a8fdd555089a3964, type: 3}
    - {fileID: 21300000, guid: c9e489e43a45f064aa115115274e0140, type: 3}
    - {fileID: 21300000, guid: c774abd6fec28164190a81e355f70055, type: 3}
    - {fileID: 21300000, guid: 176447aa32cd9af4ea858b5234ad3ac8, type: 3}
    - {fileID: 21300000, guid: a771e948ff0fdd549871434b343d4e1d, type: 3}
    - {fileID: 21300000, guid: 398bfa3c47a939d42a040bb5eec58347, type: 3}
    - {fileID: 21300000, guid: a1c9cc2600b02e541b1a73554d0f6df3, type: 3}
    - {fileID: 21300000, guid: fd49766c2484247488bf85a2d9fa59d7, type: 3}
    - {fileID: 21300000, guid: 205122068812a3b4a8cf4367977e03f1, type: 3}
    - {fileID: 21300000, guid: a97618f0743537546971030869b809ff, type: 3}
    - {fileID: 21300000, guid: fd915a6f2eb97ac47bc7a69bda113f9b, type: 3}
    - {fileID: 21300000, guid: 8a098266194de3a43ae520332e748dfb, type: 3}
    - {fileID: 21300000, guid: c453edae0e1c56d43aa0cf3c80494f51, type: 3}
    - {fileID: 21300000, guid: 1a67466a021d052419bbccb66ac6f726, type: 3}
    - {fileID: 21300000, guid: 0522b4c07dc0e0841aea817079dbbde5, type: 3}
    - {fileID: 21300000, guid: 24a379f77b4e6054c85e910b6f08f07d, type: 3}
    - {fileID: 21300000, guid: 13a2322c38fc7e3428c590d61e808317, type: 3}
    - {fileID: 21300000, guid: 0fe506850ec3ef94d9d3d76d9045a238, type: 3}
    - {fileID: 21300000, guid: e704a9b5b57fc2f4c8ece9eea5915742, type: 3}
    - {fileID: 21300000, guid: df7f447d7c3baf84286e6652e6c2a289, type: 3}
    - {fileID: 21300000, guid: df7f447d7c3baf84286e6652e6c2a289, type: 3}
  m_AnimationClipSettings:
    serializedVersion: 2
    m_AdditiveReferencePoseClip: {fileID: 0}
    m_AdditiveReferencePoseTime: 0
    m_StartTime: 0
    m_StopTime: 6.016667
    m_OrientationOffsetY: 0
    m_Level: 0
    m_CycleOffset: 0
    m_HasAdditiveReferencePose: 0
    m_LoopTime: 1
    m_LoopBlend: 0
    m_LoopBlendOrientation: 0
    m_LoopBlendPositionY: 0
    m_LoopBlendPositionXZ: 0
    m_KeepOriginalOrientation: 0
    m_KeepOriginalPositionY: 1
    m_KeepOriginalPositionXZ: 0
    m_HeightFromFeet: 0
    m_Mirror: 0
  m_EditorCurves: []
  m_EulerEditorCurves: []
  m_HasGenericRootTransform: 0
  m_HasMotionFloatCurves: 0
  m_GenerateMotionCurves: 0
  m_Events: []
