%YAML 1.1
%TAG !u! tag:unity3d.com,2011:
--- !u!74 &7400000
AnimationClip:
  m_ObjectHideFlags: 0
  m_PrefabParentObject: {fileID: 0}
  m_PrefabInternal: {fileID: 0}
  m_Name: Walk
  serializedVersion: 6
  m_Legacy: 0
  m_Compressed: 0
  m_UseHighQualityCurve: 1
  m_RotationCurves: []
  m_CompressedRotationCurves: []
  m_EulerCurves: []
  m_PositionCurves: []
  m_ScaleCurves: []
  m_FloatCurves: []
  m_PPtrCurves:
  - curve:
    - time: 0
      value: {fileID: 21300000, guid: 36d0abb6259ff0742be6c1464f382f63, type: 3}
    - time: 0.11666667
      value: {fileID: 21300000, guid: f0e10abac429b69458e30af3b3ca0c08, type: 3}
    - time: 0.23333333
      value: {fileID: 21300000, guid: 631f1d9cc48c9e94183414891a48e6e3, type: 3}
    - time: 0.35
      value: {fileID: 21300000, guid: f29febe130197b442a5010e401685de5, type: 3}
    - time: 0.46666667
      value: {fileID: 21300000, guid: c999f63655459fd4d90a5802bcc6015e, type: 3}
    - time: 0.5833333
      value: {fileID: 21300000, guid: 4bae9cb6142f2e443a36faee2ba77f0d, type: 3}
    - time: 0.7
      value: {fileID: 21300000, guid: 1a3d65deb4fdc96489ae990b44b11ece, type: 3}
    - time: 0.81666666
      value: {fileID: 21300000, guid: ea070020ab51dba4a8f4aeac722f5635, type: 3}
    attribute: m_Sprite
    path: 
    classID: 212
    script: {fileID: 0}
  m_SampleRate: 60
  m_WrapMode: 0
  m_Bounds:
    m_Center: {x: 0, y: 0, z: 0}
    m_Extent: {x: 0, y: 0, z: 0}
  m_ClipBindingConstant:
    genericBindings:
    - serializedVersion: 2
      path: 0
      attribute: 0
      script: {fileID: 0}
      typeID: 212
      customType: 23
      isPPtrCurve: 1
    pptrCurveMapping:
    - {fileID: 21300000, guid: 36d0abb6259ff0742be6c1464f382f63, type: 3}
    - {fileID: 21300000, guid: f0e10abac429b69458e30af3b3ca0c08, type: 3}
    - {fileID: 21300000, guid: 631f1d9cc48c9e94183414891a48e6e3, type: 3}
    - {fileID: 21300000, guid: f29febe130197b442a5010e401685de5, type: 3}
    - {fileID: 21300000, guid: c999f63655459fd4d90a5802bcc6015e, type: 3}
    - {fileID: 21300000, guid: 4bae9cb6142f2e443a36faee2ba77f0d, type: 3}
    - {fileID: 21300000, guid: 1a3d65deb4fdc96489ae990b44b11ece, type: 3}
    - {fileID: 21300000, guid: ea070020ab51dba4a8f4aeac722f5635, type: 3}
  m_AnimationClipSettings:
    serializedVersion: 2
    m_AdditiveReferencePoseClip: {fileID: 0}
    m_AdditiveReferencePoseTime: 0
    m_StartTime: 0
    m_StopTime: 0.8333333
    m_OrientationOffsetY: 0
    m_Level: 0
    m_CycleOffset: 0
    m_HasAdditiveReferencePose: 0
    m_LoopTime: 1
    m_LoopBlend: 0
    m_LoopBlendOrientation: 0
    m_LoopBlendPositionY: 0
    m_LoopBlendPositionXZ: 0
    m_KeepOriginalOrientation: 0
    m_KeepOriginalPositionY: 1
    m_KeepOriginalPositionXZ: 0
    m_HeightFromFeet: 0
    m_Mirror: 0
  m_EditorCurves: []
  m_EulerEditorCurves: []
  m_HasGenericRootTransform: 0
  m_HasMotionFloatCurves: 0
  m_GenerateMotionCurves: 0
  m_Events: []
