%YAML 1.1
%TAG !u! tag:unity3d.com,2011:
--- !u!74 &7400000
AnimationClip:
  m_ObjectHideFlags: 0
  m_PrefabParentObject: {fileID: 0}
  m_PrefabInternal: {fileID: 0}
  m_Name: Action
  serializedVersion: 6
  m_Legacy: 0
  m_Compressed: 0
  m_UseHighQualityCurve: 1
  m_RotationCurves: []
  m_CompressedRotationCurves: []
  m_EulerCurves: []
  m_PositionCurves: []
  m_ScaleCurves: []
  m_FloatCurves: []
  m_PPtrCurves:
  - curve:
    - time: 0
      value: {fileID: 21300000, guid: dfa5f270e5d77e34395709b97d6aaed8, type: 3}
    - time: 0.21666667
      value: {fileID: 21300000, guid: fef111bdf31a0324a8c7933af9d059cc, type: 3}
    - time: 0.38333333
      value: {fileID: 21300000, guid: e08b6a772787862418868a79dab2dd80, type: 3}
    - time: 1.0666667
      value: {fileID: 21300000, guid: 7f9a5daf7c398a9439c79d043a2c318b, type: 3}
    - time: 1.95
      value: {fileID: 21300000, guid: cc8432c6ce253664ea9cbdd0d7bf620e, type: 3}
    - time: 2.6333334
      value: {fileID: 21300000, guid: 7f9a5daf7c398a9439c79d043a2c318b, type: 3}
    - time: 3.2166667
      value: {fileID: 21300000, guid: cc8432c6ce253664ea9cbdd0d7bf620e, type: 3}
    - time: 4.2166667
      value: {fileID: 21300000, guid: fef111bdf31a0324a8c7933af9d059cc, type: 3}
    - time: 4.366667
      value: {fileID: 21300000, guid: dfa5f270e5d77e34395709b97d6aaed8, type: 3}
    - time: 5.0833335
      value: {fileID: 21300000, guid: dfa5f270e5d77e34395709b97d6aaed8, type: 3}
    attribute: m_Sprite
    path: 
    classID: 212
    script: {fileID: 0}
  m_SampleRate: 60
  m_WrapMode: 0
  m_Bounds:
    m_Center: {x: 0, y: 0, z: 0}
    m_Extent: {x: 0, y: 0, z: 0}
  m_ClipBindingConstant:
    genericBindings:
    - serializedVersion: 2
      path: 0
      attribute: 0
      script: {fileID: 0}
      typeID: 212
      customType: 23
      isPPtrCurve: 1
    pptrCurveMapping:
    - {fileID: 21300000, guid: dfa5f270e5d77e34395709b97d6aaed8, type: 3}
    - {fileID: 21300000, guid: fef111bdf31a0324a8c7933af9d059cc, type: 3}
    - {fileID: 21300000, guid: e08b6a772787862418868a79dab2dd80, type: 3}
    - {fileID: 21300000, guid: 7f9a5daf7c398a9439c79d043a2c318b, type: 3}
    - {fileID: 21300000, guid: cc8432c6ce253664ea9cbdd0d7bf620e, type: 3}
    - {fileID: 21300000, guid: 7f9a5daf7c398a9439c79d043a2c318b, type: 3}
    - {fileID: 21300000, guid: cc8432c6ce253664ea9cbdd0d7bf620e, type: 3}
    - {fileID: 21300000, guid: fef111bdf31a0324a8c7933af9d059cc, type: 3}
    - {fileID: 21300000, guid: dfa5f270e5d77e34395709b97d6aaed8, type: 3}
    - {fileID: 21300000, guid: dfa5f270e5d77e34395709b97d6aaed8, type: 3}
  m_AnimationClipSettings:
    serializedVersion: 2
    m_AdditiveReferencePoseClip: {fileID: 0}
    m_AdditiveReferencePoseTime: 0
    m_StartTime: 0
    m_StopTime: 5.1000004
    m_OrientationOffsetY: 0
    m_Level: 0
    m_CycleOffset: 0
    m_HasAdditiveReferencePose: 0
    m_LoopTime: 1
    m_LoopBlend: 0
    m_LoopBlendOrientation: 0
    m_LoopBlendPositionY: 0
    m_LoopBlendPositionXZ: 0
    m_KeepOriginalOrientation: 0
    m_KeepOriginalPositionY: 1
    m_KeepOriginalPositionXZ: 0
    m_HeightFromFeet: 0
    m_Mirror: 0
  m_EditorCurves: []
  m_EulerEditorCurves: []
  m_HasGenericRootTransform: 0
  m_HasMotionFloatCurves: 0
  m_GenerateMotionCurves: 0
  m_Events: []
